<svg xmlns="http://www.w3.org/2000/svg" width="24" height="24" viewBox="0 0 24 24">
	<g transform="translate(0 -0.003)">
		<path fill="#fff" d="M28.286,28.335a11.6,11.6,0,1,1,0-16.4l0,0A11.572,11.572,0,0,1,28.321,28.3Z" transform="translate(-8.084 -8.132)" />
		<path fill="none" d="M12,24A12,12,0,1,1,20.483,3.515h0A12,12,0,0,1,12,24ZM12,.8a11.2,11.2,0,1,0,7.92,3.28h0A11.128,11.128,0,0,0,12,.8Z" transform="translate(0 0)" />
		<g transform="translate(5.999 7.335)">
			<path fill="#3575e8" d="M12.055-1.332H1.922A1.863,1.863,0,0,0,0,.461V6.249A1.862,1.862,0,0,0,1.915,8.042v2.626L5.959,8.042h6.1a1.863,1.863,0,0,0,1.921-1.793V.461a1.863,1.863,0,0,0-1.921-1.793ZM7.029,2.025c0,.567.608,0,0,0h0V1.959h0c-.608,0,0,.567,0,0h0c0-.567-.608.065,0,.065h0c.608,0,0-.567,0,0Zm0,0" transform="translate(-0.976 1)" />
		</g>
	</g>
</svg>
