<svg xmlns="http://www.w3.org/2000/svg" width="16" height="15" viewBox="0 0 16 15">
	<g transform="translate(-0.5 -0.5)">
		<path class="a" fill="none" stroke="#2c3036" stroke-linecap="round" stroke-linejoi="round" d="M11.018,25.084a.781.781,0,1,0-.745-.781A.763.763,0,0,0,11.018,25.084Z" transform="translate(-3.973 -10.084)" />
		<path class="a" fill="none" stroke="#2c3036" stroke-linecap="round" stroke-linejoi="round" d="M22.018,25.084a.781.781,0,1,0-.745-.781A.763.763,0,0,0,22.018,25.084Z" transform="translate(-8.883 -10.084)" />
		<path class="a" fill="none" stroke="#2c3036" stroke-linecap="round" stroke-linejoi="round" d="M1,1H3.727L5.555,9.88a1.321,1.321,0,0,0,.482.775,1.388,1.388,0,0,0,.881.293h6.627a1.388,1.388,0,0,0,.881-.293,1.321,1.321,0,0,0,.482-.775L16,4.316H4.409" />
	</g>
</svg>
